Text Analysis – Morgan Ryan
…
First, finding the data I want to work with.

fleet_mac <- spot_mill |>
  filter(str_detect(artist, "^(f|F).*c$")) |> #Str function, regex #1
  filter(artist == "Fleetwood Mac") |>
  select(-link, -artist)

fleet_mac

# A tibble: 180 × 2
   song                        text                                             
   <chr>                       <chr>                                            
 1 A Fool No More              "Yes, I've packed up my clothes  \r\nI'm moving …
 2 Affairs Of The Heart        "One set of doors was the color of honey  \r\nOn…
 3 All Over Again              "Well it's time to say goodnight  \r\nAnd finall…
 4 Allow Me One More Show      "Written by jeremy spencer.  \r\n  \r\nWhoa, tre…
 5 Although The Sun Is Shining "Although the sun is shining  \r\nHigh above  \r…
 6 Angel                       "Oh how I wish I was back in Georgia  \r\nMaybe …
 7 As Long As You Follow       "I've been searching  \r\nFor a pot of gold  \r\…
 8 Bad Loser                   "Well you thought you had a hold on me  \r\nBut …
 9 Bare Trees                  "Bare trees, gray light  \r\nOh yeah it was a co…
10 Beautiful Child             "Beautiful child  \r\nBeautiful child  \r\nYou a…
# ℹ 170 more rows

Next, tokenize and and tidy the data

tidy_fleet_mac <- fleet_mac |>
  mutate(line = row_number()) |>
  unnest_tokens(word, text, token = "words")

tidy_fleet_mac

# A tibble: 33,031 × 3
   song            line word   
   <chr>          <int> <chr>  
 1 A Fool No More     1 yes    
 2 A Fool No More     1 i've   
 3 A Fool No More     1 packed 
 4 A Fool No More     1 up     
 5 A Fool No More     1 my     
 6 A Fool No More     1 clothes
 7 A Fool No More     1 i'm    
 8 A Fool No More     1 moving 
 9 A Fool No More     1 away   
10 A Fool No More     1 from   
# ℹ 33,021 more rows
…
I’m not surprised at the higher count of negative words. I feel like Stevie Nicks also weaponizes the “positive” words to sometimes be used demeaningly and often with much irony. As the themes in her songs are often of heartbreak and have a deep emotional depth.

fleet_mac_sentiments <- tidy_fleet_mac |>
  inner_join(bing_sentiments) |>
  count(sentiment, word, sort = TRUE) |>
  group_by(sentiment) |>
  slice_max(n, n = 10) |>
  ungroup()

Joining with `by = join_by(word)`

fleet_mac_sentiments

# A tibble: 21 × 3
   sentiment word       n
   <chr>     <chr>  <int>
 1 negative  hard      45
 2 negative  blow      36
 3 negative  bad       33
 4 negative  fool      32
 5 negative  wrong     31
 6 negative  lonely    30
 7 negative  lies      29
 8 negative  miss      29
 9 negative  break     26
10 negative  cry       22
# ℹ 11 more rows
…
